<svg xmlns="http://www.w3.org/2000/svg" xmlns:xlink="http://www.w3.org/1999/xlink" width="235" height="299" viewBox="0 0 235 299">
  <defs>
    <filter id="Rectangle_33" x="24.078" y="21.568" width="202.19" height="273.73" filterUnits="userSpaceOnUse">
      <feOffset dy="3" input="SourceAlpha"/>
      <feGaussianBlur stdDeviation="3" result="blur"/>
      <feFlood flood-opacity="0.161"/>
      <feComposite operator="in" in2="blur"/>
      <feComposite in="SourceGraphic"/>
    </filter>
    <filter id="Rectangle_34" x="82.78" y="0" width="85.784" height="141.244" filterUnits="userSpaceOnUse">
      <feOffset dy="3" input="SourceAlpha"/>
      <feGaussianBlur stdDeviation="3" result="blur-2"/>
      <feFlood flood-opacity="0.345"/>
      <feComposite operator="in" in2="blur-2"/>
      <feComposite in="SourceGraphic"/>
    </filter>
  </defs>
  <g id="Group_19" data-name="Group 19" transform="translate(-307 -43)">
    <rect id="Rectangle_42" data-name="Rectangle 42" width="235" height="293" transform="translate(307 49)" fill="none"/>
    <g id="Group_18" data-name="Group 18" transform="translate(211 -2.839)">
      <g transform="matrix(1, 0, 0, 1, 96, 45.84)" filter="url(#Rectangle_33)">
        <g id="Rectangle_33-2" data-name="Rectangle 33" transform="translate(33.08 283.3) rotate(-90)" fill="#2a2c2b" stroke="#f58220" stroke-width="3">
          <rect width="255.73" height="184.19" rx="10" stroke="none"/>
          <rect x="1.5" y="1.5" width="252.73" height="181.19" rx="8.5" fill="none"/>
        </g>
      </g>
      <rect id="Rectangle_37" data-name="Rectangle 37" width="255.73" height="43.022" rx="8" transform="translate(129.078 329.136) rotate(-90)" fill="#343635" opacity="0.505"/>
      <g id="Rectangle_38" data-name="Rectangle 38" transform="translate(129.078 329.136) rotate(-90)" fill="none" stroke="#f58220" stroke-width="3">
        <rect width="255.73" height="184.19" rx="10" stroke="none"/>
        <rect x="1.5" y="1.5" width="252.73" height="181.19" rx="8.5" fill="none"/>
      </g>
      <g transform="matrix(1, 0, 0, 1, 96, 45.84)" filter="url(#Rectangle_34)">
        <g id="Rectangle_34-2" data-name="Rectangle 34" transform="translate(91.78 129.24) rotate(-90)" fill="#fcb716" stroke="#f58220" stroke-width="3">
          <rect width="123.243" height="67.784" rx="6" stroke="none"/>
          <rect x="1.5" y="1.5" width="120.243" height="64.784" rx="4.5" fill="none"/>
        </g>
      </g>
      <path id="Path_55" data-name="Path 55" d="M840.422,5119.1v250.533" transform="translate(-679.508 -5042.766)" fill="none" stroke="#f58220" stroke-width="3" stroke-dasharray="5"/>
      <path id="Path_56" data-name="Path 56" d="M840.422,5119.1v250.533" transform="translate(-558.351 -5042.766)" fill="none" stroke="#f58220" stroke-width="3" stroke-dasharray="5"/>
      <g id="Ellipse_18" data-name="Ellipse 18" transform="translate(209.96 138.83)" fill="#fff" stroke="#f58220" stroke-width="3">
        <circle cx="12.116" cy="12.116" r="12.116" stroke="none"/>
        <circle cx="12.116" cy="12.116" r="10.616" fill="none"/>
      </g>
      <g id="Path_58" data-name="Path 58" transform="translate(114 344.542) rotate(-90)" fill="#fcb716">
        <path d="M 58.54063415527344 115.5812683105469 C 50.83953475952148 115.5812683105469 43.36960220336914 114.0733337402344 36.33830261230469 111.0993499755859 C 32.95873260498047 109.6699142456055 29.69901657104492 107.9005813598633 26.64971733093262 105.8405151367188 C 23.62900161743164 103.7997512817383 20.78840065002441 101.4560317993164 18.20681762695312 98.87445068359375 C 15.62523460388184 96.29286956787109 13.28151702880859 93.4522705078125 11.24075126647949 90.43154907226562 C 9.180684089660645 87.38224792480469 7.411350727081299 84.12253570556641 5.981917381286621 80.74296569824219 C 3.007934093475342 73.711669921875 1.500000834465027 66.24173736572266 1.500000834465027 58.54063415527344 C 1.500000834465027 50.83953475952148 3.007934093475342 43.36960220336914 5.981917381286621 36.33830261230469 C 7.411350727081299 32.95873260498047 9.180684089660645 29.69901657104492 11.24075126647949 26.64971733093262 C 13.28151702880859 23.62900161743164 15.62523460388184 20.78840065002441 18.20681762695312 18.20681762695312 C 20.78840065002441 15.62523460388184 23.62900161743164 13.28151702880859 26.64971733093262 11.24075126647949 C 29.69901657104492 9.180684089660645 32.95873260498047 7.411350727081299 36.33830261230469 5.981917381286621 C 43.36960220336914 3.007934093475342 50.83953475952148 1.500000834465027 58.54063415527344 1.500000834465027 C 66.24173736572266 1.500000834465027 73.711669921875 3.007934093475342 80.74296569824219 5.981917381286621 C 84.12253570556641 7.411350727081299 87.38224792480469 9.180684089660645 90.43154907226562 11.24075126647949 C 93.4522705078125 13.28151702880859 96.29286956787109 15.62523460388184 98.87445068359375 18.20681762695312 C 101.4560317993164 20.78840065002441 103.7997512817383 23.62900161743164 105.8405151367188 26.64971733093262 C 107.9005813598633 29.69901657104492 109.6699142456055 32.95873260498047 111.0993499755859 36.33830261230469 C 114.0733337402344 43.36960220336914 115.5812683105469 50.83953475952148 115.5812683105469 58.54063415527344 C 115.5812683105469 66.24173736572266 114.0733337402344 73.711669921875 111.0993499755859 80.74296569824219 C 109.6699142456055 84.12253570556641 107.9005813598633 87.38224792480469 105.8405151367188 90.43154907226562 C 103.7997512817383 93.4522705078125 101.4560317993164 96.29286956787109 98.87445068359375 98.87445068359375 C 96.29286956787109 101.4560317993164 93.4522705078125 103.7997512817383 90.43154907226562 105.8405151367188 C 87.38224792480469 107.9005813598633 84.12253570556641 109.6699142456055 80.74296569824219 111.0993499755859 C 73.711669921875 114.0733337402344 66.24173736572266 115.5812683105469 58.54063415527344 115.5812683105469 Z" stroke="none"/>
        <path d="M 58.54063415527344 3 C 51.0413818359375 3 43.76801300048828 4.468070983886719 36.92263793945312 7.363418579101562 C 33.63227081298828 8.755126953125 30.45847320556641 10.47783660888672 27.48941802978516 12.48368835449219 C 24.54781341552734 14.47100067138672 21.78153991699219 16.75339508056641 19.26747131347656 19.26747131347656 C 16.75339508056641 21.78153991699219 14.47100067138672 24.54781341552734 12.48368835449219 27.48941802978516 C 10.47783660888672 30.45847320556641 8.755126953125 33.63227081298828 7.363418579101562 36.92263793945312 C 4.468070983886719 43.76801300048828 3 51.0413818359375 3 58.54063415527344 C 3 66.03988647460938 4.468070983886719 73.313232421875 7.363418579101562 80.15863037109375 C 8.755126953125 83.44899749755859 10.47783660888672 86.62277984619141 12.48368835449219 89.59183502197266 C 14.47100067138672 92.53345489501953 16.75339508056641 95.29972839355469 19.26747131347656 97.81379699707031 C 21.78153991699219 100.3278732299805 24.54781341552734 102.6102523803711 27.48941802978516 104.5975799560547 C 30.45847320556641 106.6034317016602 33.63227081298828 108.3261413574219 36.92263793945312 109.7178344726562 C 43.76803588867188 112.6131973266602 51.0413818359375 114.0812683105469 58.54063415527344 114.0812683105469 C 66.03988647460938 114.0812683105469 73.313232421875 112.6131973266602 80.15863037109375 109.7178344726562 C 83.44899749755859 108.3261413574219 86.62277984619141 106.6034317016602 89.59183502197266 104.5975799560547 C 92.53345489501953 102.6102523803711 95.29972839355469 100.3278732299805 97.81379699707031 97.81379699707031 C 100.3278732299805 95.29972839355469 102.6102523803711 92.53345489501953 104.5975799560547 89.59183502197266 C 106.6034317016602 86.62277984619141 108.3261413574219 83.44899749755859 109.7178344726562 80.15863037109375 C 112.6131973266602 73.313232421875 114.0812683105469 66.03988647460938 114.0812683105469 58.54063415527344 C 114.0812683105469 51.0413818359375 112.6131973266602 43.76803588867188 109.7178344726562 36.92263793945312 C 108.3261413574219 33.63227081298828 106.6034317016602 30.45847320556641 104.5975799560547 27.48941802978516 C 102.6102523803711 24.54781341552734 100.3278732299805 21.78153991699219 97.81379699707031 19.26747131347656 C 95.29972839355469 16.75339508056641 92.53345489501953 14.47100067138672 89.59183502197266 12.48368835449219 C 86.62277984619141 10.47783660888672 83.44899749755859 8.755126953125 80.15863037109375 7.363418579101562 C 73.313232421875 4.468070983886719 66.03988647460938 3 58.54063415527344 3 M 58.54063415527344 0 C 90.87172698974609 0 117.0812683105469 26.20952606201172 117.0812683105469 58.54063415527344 C 117.0812683105469 90.87172698974609 90.87172698974609 117.0812683105469 58.54063415527344 117.0812683105469 C 26.20952606201172 117.0812683105469 0 90.87172698974609 0 58.54063415527344 C 0 26.20952606201172 26.20952606201172 0 58.54063415527344 0 Z" stroke="none" fill="#f58220"/>
      </g>
      <path id="Path_57" data-name="Path 57" d="M27.388-9.446a11.108,11.108,0,0,0,6.365-1.809,10.777,10.777,0,0,0,3.974-4.911H49.357A20.745,20.745,0,0,1,41.991-3.792Q36.24.828,27.582.828A22.006,22.006,0,0,1,13.657-3.566a21,21,0,0,1-7.528-11.89h-5.1v-5.1H5.353q-.065-.646-.065-1.874t.065-1.809H1.024v-5.1h5.1A21.023,21.023,0,0,1,13.657-41.3,22.006,22.006,0,0,1,27.582-45.7q8.659,0,14.41,4.588A20.637,20.637,0,0,1,49.357-28.7H37.726a10.731,10.731,0,0,0-3.974-4.975,11.108,11.108,0,0,0-6.365-1.809,10.152,10.152,0,0,0-5.654,1.615,10.582,10.582,0,0,0-3.845,4.523H29.262v5.1H16.6q-.065.582-.065,1.809,0,1.292.065,1.874H29.262v5.1H17.954a10.515,10.515,0,0,0,3.812,4.426A10.146,10.146,0,0,0,27.388-9.446Z" transform="translate(145.813 308.009)" fill="#fff"/>
      <path id="Rectangle_39" data-name="Rectangle 39" d="M6,0H117.243a6,6,0,0,1,6,6V20.768a0,0,0,0,1,0,0H0a0,0,0,0,1,0,0V6A6,6,0,0,1,6,0Z" transform="translate(187.78 175.082) rotate(-90)" fill="#efac11" opacity="0.497"/>
      <g id="Rectangle_40" data-name="Rectangle 40" transform="translate(187.78 175.082) rotate(-90)" fill="none" stroke="#f58220" stroke-width="3">
        <rect width="123.243" height="67.784" rx="6" stroke="none"/>
        <rect x="1.5" y="1.5" width="120.243" height="64.784" rx="4.5" fill="none"/>
      </g>
      <path id="Subtraction_6" data-name="Subtraction 6" d="M30.394,109.883A58.447,58.447,0,0,1,0,58.541,58.515,58.515,0,0,1,92.122,10.584a59.044,59.044,0,0,1,8.773,7.545,58.54,58.54,0,0,0-70.5,91.753Z" transform="translate(114 227.46)" fill="#f5b213"/>
      <g id="Ellipse_21" data-name="Ellipse 21" transform="translate(114 344.542) rotate(-90)" fill="none" stroke="#f58220" stroke-width="3">
        <circle cx="58.541" cy="58.541" r="58.541" stroke="none"/>
        <circle cx="58.541" cy="58.541" r="57.041" fill="none"/>
      </g>
    </g>
  </g>
</svg>
